type,value,
base_theme,2,
theme_boost_header_color,-15855063,
theme_text_header_1_line,-2128640,
theme_text_header_2_line,-5329234,
theme_statuses_color,-1,
theme_link_color,-12146699,
theme_icons_color,-2128640,
pref_color_background,-15987700,
pref_color_navigation_bar,true,
pref_color_status_bar,true,
theme_accent,-3968000,
theme_text_color,-197380,
theme_primary,-14408668,
