{
  "invidious": [
    {"domain": "invidious.snopyta.org", "cloudflare":  false,"locale":  "fi"},
    {"domain": "invidious.13ad.de", "cloudflare":  false,"locale":  "de"},
    {"domain": "yewtu.be", "cloudflare":  false,"locale":  "de"},
    {"domain": "invidious.ggc-project.de", "cloudflare":  true,"locale":  "de"}
  ],
  "nitter": [
    {"domain": "nitter.net", "cloudflare":  false,"locale":  "de"},
    {"domain": "nitter.snopyta.org", "cloudflare":  false,"locale":  "fi"},
    {"domain": "nitter.42l.fr", "cloudflare":  false,"locale":  "fr"},
    {"domain": "nitter.nixnet.services", "cloudflare":  false,"locale":  "de"},
    {"domain": "nitter.13ad.de", "cloudflare":  false,"locale":  "de"},
    {"domain": "tw.openalgeria.org", "cloudflare":  false,"locale":  "fr"},
    {"domain": "nitter.pussthecat.org", "cloudflare":  false,"locale":  "de"},
    {"domain": "nitter.mastodont.cat", "cloudflare":  false,"locale":  "de"},
    {"domain": "nitter.dark.fail", "cloudflare":  true,"locale":  "us"},
    {"domain": "nitter.tedomum.net", "cloudflare":  false,"locale":  "fr"}
  ],
  "bibliogram": [
    {"domain": "bibliogram.art", "cloudflare":  false,"locale":  "au"},
    {"domain": "bibliogram.snopyta.org", "cloudflare":  false,"locale":  "fi"},
    {"domain": "bibliogram.pussthecat.org", "cloudflare":  false,"locale":  "de"}
  ],
  "teddit": [
    {"domain": "teddit.net (TEDDIT)", "cloudflare":  false,"locale":  "en"},
    {"domain": "libredd.it (LIBREDDIT)", "cloudflare":  false,"locale":  "en"},
    {"domain": "libreddit.spike.codes (LIBREDDIT)", "cloudflare":  false,"locale":  "en"},
    {"domain": "libreddit.dothq.co (LIBREDDIT)", "cloudflare":  true,"locale":  "en"},
    {"domain": "libreddit.insanity.wtf (LIBREDDIT)", "cloudflare":  true,"locale":  "en"},
    {"domain": "libreddit.kavin.rocks (LIBREDDIT)", "cloudflare":  true,"locale":  "in"}
  ]
}